CCU/test2.vcd
$date
	Mon Apr  2 18:06:06 2012
$end
$version
	Icarus Verilog
$end
$timescale
	1s
$end
$scope module CCU_tb $end
$scope module U_CCU $end
$var wire 24 ! Kbus [23:0] $end
$var wire 4 " cc [3:0] $end
$var wire 1 # clk $end
$var wire 8 $ cmd [7:0] $end
$var reg 4 % Abus [3:0] $end
$var reg 4 & Bbus [3:0] $end
$var reg 7 ' Lstate [6:0] $end
$var reg 4 ( Pstate [3:0] $end
$var reg 4 ) Rbus [3:0] $end
$var reg 8 * mData [7:0] $end
$var reg 4 + n [3:0] $end
$var reg 1 , outEnable $end
$var reg 2 - state [1:0] $end
$var reg 8 . tx [7:0] $end
$var reg 8 / txe [7:0] $end
$scope module U_DPU $end
$var wire 4 0 Abus [3:0] $end
$var wire 4 1 Bbus [3:0] $end
$var wire 4 2 Rbus [3:0] $end
$var wire 4 3 cc [3:0] $end
$var wire 8 4 mData [7:0] $end
$var wire 4 5 n [3:0] $end
$var wire 1 6 outEnable $end
$var wire 8 7 tr [7:0] $end
$var wire 1 8 writeEnable $end
$var reg 24 9 Kbus [23:0] $end
$var reg 8 : accuA [7:0] $end
$var reg 8 ; accuB [7:0] $end
$var reg 4 < i [3:0] $end
$upscope $end
$scope task line $end
$upscope $end
$scope task point $end
$upscope $end
$upscope $end
$upscope $end
$enddefinitions $end
#0
$dumpvars
bx <
bx ;
bx :
bx 9
x8
bx 7
06
bx 5
bx 4
bx 3
bx 2
bx 1
bx 0
bx /
bx .
b10 -
0,
bx +
bx *
bx )
b0 (
b1 '
bx &
bx %
b1001100 $
0#
bx "
bx !
$end
#5
08
b0 "
b0 3
b10 '
b0 .
b0 *
b0 4
b101 )
b101 2
b1000 +
b1000 5
b0 $
1#
#10
b11 '
b111 )
b111 2
0#
#15
b100 '
b110010 /
b110010 *
b110010 4
b110 )
b110 2
b110010 $
1#
#20
b101 '
b11110 *
b11110 4
b1000 )
b1000 2
b11110 $
0#
#25
b110 '
b1010 *
b1010 4
b1011 )
b1011 2
b1010 $
1#
#30
18
b1 "
b1 3
b11110 7
b0 ;
b11110 :
b111 '
b111 &
b111 1
b1000 %
b1000 0
b1 )
b1 2
b1 +
b1 5
b1100 $
0#
#35
b110010 7
18
b1 "
b1 3
b110010 :
b1000 '
b101 &
b101 1
b110 %
b110 0
b0 )
b0 2
b1110 $
1#
#40
b111100 7
18
b1 "
b1 3
b11110 :
b1001 '
b1 %
b1 0
b100 )
b100 2
b10 +
b10 5
b10000 $
0#
#45
b1010 7
18
b1 "
b1 3
b110010 ;
b111100 :
b1010 '
b0 &
b0 1
b100 %
b100 0
b10 )
b10 2
b1 +
b1 5
b10010 $
1#
#50
b11011000 7
18
b1 "
b1 3
b1010 :
b1011 '
b10 %
b10 0
b11 )
b11 2
b10100 $
0#
#55
b0 7
18
b0 "
b0 3
b0 :
b1100 '
b101 %
b101 0
b1001 )
b1001 2
b100 +
b100 5
b10110 $
1#
#60
18
b0 ;
b1101 '
b111 &
b111 1
b1010 )
b1010 2
b101 +
b101 5
b11000 $
0#
#65
b1 "
b1 3
b1 7
18
b1 ;
b1110 '
1,
16
b1 .
b1100 &
b1100 1
b1001 %
b1001 0
b1001 )
b1001 2
b0 +
b0 5
1#
#70
b1010 7
18
b100 "
b100 3
b0 ;
b1010 :
b10011 '
b1101 &
b1101 1
b10 %
b10 0
b1110 )
b1110 2
b110 +
b110 5
0#
#75
b10000 '
1#
#80
b1 7
18
b1 "
b1 3
b1 ;
b0 :
b10001 '
b1100 &
b1100 1
b1010 %
b1010 0
b1010 )
b1010 2
b0 +
b0 5
b0 $
0#
#85
b11100011 7
18
b1 "
b1 3
b11011000 ;
b1010 :
b10010 '
b11 &
b11 1
b10 %
b10 0
b10 )
b10 2
1#
#90
b1101 '
0#
#95
b10 7
18
b1 "
b1 3
b1 ;
b1 :
b1110 '
0,
06
b10 .
b1100 &
b1100 1
b1001 %
b1001 0
b1001 )
b1001 2
1#
#100
b0 7
18
b1000 "
b1000 3
b0 ;
b11100011 :
b10011 '
b1101 &
b1101 1
b10 %
b10 0
b1110 )
b1110 2
b110 +
b110 5
0#
#105
b1111 '
1#
#110
b100000 7
18
b1 "
b1 3
b111100 ;
b10010 '
b100 &
b100 1
b10 )
b10 2
b0 +
b0 5
0#
#115
b1101 '
1#
#120
b11 7
18
b1 "
b1 3
b1 ;
b10 :
b1110 '
1,
16
b11 .
b1100 &
b1100 1
b1001 %
b1001 0
b1001 )
b1001 2
0#
#125
b100000 7
18
b100 "
b100 3
b0 ;
b100000 :
b10011 '
b1101 &
b1101 1
b10 %
b10 0
b1110 )
b1110 2
b110 +
b110 5
1#
#130
b10000 '
0#
#135
b10 7
18
b1 "
b1 3
b1 ;
b1 :
b10001 '
b1100 &
b1100 1
b1010 %
b1010 0
b1010 )
b1010 2
b0 +
b0 5
1#
#140
b11111001 7
18
b1 "
b1 3
b11011000 ;
b100000 :
b10010 '
b11 &
b11 1
b10 %
b10 0
b10 )
b10 2
0#
#145
b1101 '
1#
#150
b100 7
18
b1 "
b1 3
b1 ;
b11 :
b1110 '
0,
06
b100 .
b1100 &
b1100 1
b1001 %
b1001 0
b1001 )
b1001 2
0#
#155
b0 7
18
b1000 "
b1000 3
b0 ;
b11111001 :
b10011 '
b1101 &
b1101 1
b10 %
b10 0
b1110 )
b1110 2
b110 +
b110 5
1#
#160
b1111 '
0#
#165
b110110 7
18
b1 "
b1 3
b111100 ;
b10010 '
b100 &
b100 1
b10 )
b10 2
b0 +
b0 5
1#
#170
b1101 '
0#
#175
b101 7
18
b1 "
b1 3
b1 ;
b100 :
b1110 '
1,
16
b101 .
b1100 &
b1100 1
b1001 %
b1001 0
b1001 )
b1001 2
1#
#180
b110110 7
18
b100 "
b100 3
b0 ;
b110110 :
b10011 '
b1101 &
b1101 1
b10 %
b10 0
b1110 )
b1110 2
b110 +
b110 5
0#
#185
b10000 '
1#
#190
b11 7
18
b1 "
b1 3
b1 ;
b10 :
b10001 '
b1100 &
b1100 1
b1010 %
b1010 0
b1010 )
b1010 2
b0 +
b0 5
0#
#195
b1111 7
18
b1 "
b1 3
b11011000 ;
b110110 :
b10010 '
b11 &
b11 1
b10 %
b10 0
b10 )
b10 2
1#
#200
b1101 '
0#
#205
b110 7
18
b1 "
b1 3
b1 ;
b101 :
b1110 '
0,
06
b110 .
b1100 &
b1100 1
b1001 %
b1001 0
b1001 )
b1001 2
1#
#210
b1111 7
18
b100 "
b100 3
b0 ;
b1111 :
b10011 '
b1101 &
b1101 1
b10 %
b10 0
b1110 )
b1110 2
b110 +
b110 5
0#
#215
b10000 '
1#
#220
b100 7
18
b1 "
b1 3
b1 ;
b11 :
b10001 '
b1100 &
b1100 1
b1010 %
b1010 0
b1010 )
b1010 2
b0 +
b0 5
0#
#225
b11101000 7
18
b1 "
b1 3
b11011000 ;
b1111 :
b10010 '
b11 &
b11 1
b10 %
b10 0
b10 )
b10 2
1#
#230
b1101 '
0#
#235
b111 7
18
b1 "
b1 3
b1 ;
b110 :
b1110 '
1,
16
b111 .
b1100 &
b1100 1
b1001 %
b1001 0
b1001 )
b1001 2
1#
#240
b0 7
18
b1000 "
b1000 3
b0 ;
b11101000 :
b10011 '
b1101 &
b1101 1
b10 %
b10 0
b1110 )
b1110 2
b110 +
b110 5
0#
#245
b1111 '
1#
#250
b100101 7
18
b1 "
b1 3
b111100 ;
b10010 '
b100 &
b100 1
b10 )
b10 2
b0 +
b0 5
0#
#255
b1101 '
1#
#260
b1000 7
18
b1 "
b1 3
b1 ;
b111 :
b1110 '
0,
06
b1000 .
b1100 &
b1100 1
b1001 %
b1001 0
b1001 )
b1001 2
0#
#265
b100101 7
18
b100 "
b100 3
b0 ;
b100101 :
b10011 '
b1101 &
b1101 1
b10 %
b10 0
b1110 )
b1110 2
b110 +
b110 5
1#
#270
b10000 '
0#
#275
b101 7
18
b1 "
b1 3
b1 ;
b100 :
b10001 '
b1100 &
b1100 1
b1010 %
b1010 0
b1010 )
b1010 2
b0 +
b0 5
1#
#280
b11111110 7
18
b1 "
b1 3
b11011000 ;
b100101 :
b10010 '
b11 &
b11 1
b10 %
b10 0
b10 )
b10 2
0#
#285
b1101 '
1#
#290
b1001 7
18
b1 "
b1 3
b1 ;
b1000 :
b1110 '
1,
16
b1001 .
b1100 &
b1100 1
b1001 %
b1001 0
b1001 )
b1001 2
0#
#295
b0 7
18
b1000 "
b1000 3
b0 ;
b11111110 :
b10011 '
b1101 &
b1101 1
b10 %
b10 0
b1110 )
b1110 2
b110 +
b110 5
1#
#300
b1111 '
0#
#305
b111011 7
18
b1 "
b1 3
b111100 ;
b10010 '
b100 &
b100 1
b10 )
b10 2
b0 +
b0 5
1#
#310
b1101 '
0#
#315
b1010 7
18
b1 "
b1 3
b1 ;
b1001 :
b1110 '
0,
06
b1010 .
b1100 &
b1100 1
b1001 %
b1001 0
b1001 )
b1001 2
1#
#320
b111011 7
18
b100 "
b100 3
b0 ;
b111011 :
b10011 '
b1101 &
b1101 1
b10 %
b10 0
b1110 )
b1110 2
b110 +
b110 5
0#
#325
b10000 '
1#
#330
b110 7
18
b1 "
b1 3
b1 ;
b101 :
b10001 '
b1100 &
b1100 1
b1010 %
b1010 0
b1010 )
b1010 2
b0 +
b0 5
0#
#335
b10100 7
18
b1 "
b1 3
b11011000 ;
b111011 :
b10010 '
b11 &
b11 1
b10 %
b10 0
b10 )
b10 2
1#
#340
b1101 '
0#
#345
b1011 7
18
b1 "
b1 3
b1 ;
b1010 :
b1110 '
1,
16
b1011 .
b1100 &
b1100 1
b1001 %
b1001 0
b1001 )
b1001 2
1#
#350
b10100 7
18
b100 "
b100 3
b0 ;
b10100 :
b10011 '
b1101 &
b1101 1
b10 %
b10 0
b1110 )
b1110 2
b110 +
b110 5
0#
#355
b10000 '
1#
#360
b111 7
18
b1 "
b1 3
b1 ;
b110 :
b10001 '
b1100 &
b1100 1
b1010 %
b1010 0
b1010 )
b1010 2
b0 +
b0 5
0#
#365
b11101101 7
18
b1 "
b1 3
b11011000 ;
b10100 :
b10010 '
b11 &
b11 1
b10 %
b10 0
b10 )
b10 2
1#
#370
b1101 '
0#
#375
b1100 7
18
b1 "
b1 3
b1 ;
b1011 :
b1110 '
0,
06
b1100 .
b1100 &
b1100 1
b1001 %
b1001 0
b1001 )
b1001 2
1#
#380
b0 7
18
b1000 "
b1000 3
b0 ;
b11101101 :
b10011 '
b1101 &
b1101 1
b10 %
b10 0
b1110 )
b1110 2
b110 +
b110 5
0#
#385
b1111 '
1#
#390
b101010 7
18
b1 "
b1 3
b111100 ;
b10010 '
b100 &
b100 1
b10 )
b10 2
b0 +
b0 5
0#
#395
b1101 '
1#
#400
b1101 7
18
b1 "
b1 3
b1 ;
b1100 :
b1110 '
1,
16
b1101 .
b1100 &
b1100 1
b1001 %
b1001 0
b1001 )
b1001 2
0#
#405
b101010 7
18
b100 "
b100 3
b0 ;
b101010 :
b10011 '
b1101 &
b1101 1
b10 %
b10 0
b1110 )
b1110 2
b110 +
b110 5
1#
#410
b10000 '
0#
#415
b1000 7
18
b1 "
b1 3
b1 ;
b111 :
b10001 '
b1100 &
b1100 1
b1010 %
b1010 0
b1010 )
b1010 2
b0 +
b0 5
1#
#420
b11 7
18
b1 "
b1 3
b11011000 ;
b101010 :
b10010 '
b11 &
b11 1
b10 %
b10 0
b10 )
b10 2
0#
#425
b1101 '
1#
#430
b1110 7
18
b1 "
b1 3
b1 ;
b1101 :
b1110 '
0,
06
b1110 .
b1100 &
b1100 1
b1001 %
b1001 0
b1001 )
b1001 2
0#
#435
b11 7
18
b100 "
b100 3
b0 ;
b11 :
b10011 '
b1101 &
b1101 1
b10 %
b10 0
b1110 )
b1110 2
b110 +
b110 5
1#
#440
b10000 '
0#
#445
b1001 7
18
b1 "
b1 3
b1 ;
b1000 :
b10001 '
b1100 &
b1100 1
b1010 %
b1010 0
b1010 )
b1010 2
b0 +
b0 5
1#
#450
b11011100 7
18
b1 "
b1 3
b11011000 ;
b11 :
b10010 '
b11 &
b11 1
b10 %
b10 0
b10 )
b10 2
0#
#455
b1101 '
1#
#460
b1111 7
18
b1 "
b1 3
b1 ;
b1110 :
b1110 '
1,
16
b1111 .
b1100 &
b1100 1
b1001 %
b1001 0
b1001 )
b1001 2
0#
#465
b0 7
18
b1000 "
b1000 3
b0 ;
b11011100 :
b10011 '
b1101 &
b1101 1
b10 %
b10 0
b1110 )
b1110 2
b110 +
b110 5
1#
#470
b1111 '
0#
#475
b11001 7
18
b1 "
b1 3
b111100 ;
b10010 '
b100 &
b100 1
b10 )
b10 2
b0 +
b0 5
1#
#480
b1101 '
0#
#485
b10000 7
18
b1 "
b1 3
b1 ;
b1111 :
b1110 '
0,
06
b10000 .
b1100 &
b1100 1
b1001 %
b1001 0
b1001 )
b1001 2
1#
#490
b11001 7
18
b100 "
b100 3
b0 ;
b11001 :
b10011 '
b1101 &
b1101 1
b10 %
b10 0
b1110 )
b1110 2
b110 +
b110 5
0#
#495
b10000 '
1#
#500
b1010 7
18
b1 "
b1 3
b1 ;
b1001 :
b10001 '
b1100 &
b1100 1
b1010 %
b1010 0
b1010 )
b1010 2
b0 +
b0 5
0#
#505
b11110010 7
18
b1 "
b1 3
b11011000 ;
b11001 :
b10010 '
b11 &
b11 1
b10 %
b10 0
b10 )
b10 2
1#
#510
b1101 '
0#
#515
b10001 7
18
b1 "
b1 3
b1 ;
b10000 :
b1110 '
1,
16
b10001 .
b1100 &
b1100 1
b1001 %
b1001 0
b1001 )
b1001 2
1#
#520
b0 7
18
b1000 "
b1000 3
b0 ;
b11110010 :
b10011 '
b1101 &
b1101 1
b10 %
b10 0
b1110 )
b1110 2
b110 +
b110 5
0#
#525
b1111 '
1#
#530
b101111 7
18
b1 "
b1 3
b111100 ;
b10010 '
b100 &
b100 1
b10 )
b10 2
b0 +
b0 5
0#
#535
b1101 '
1#
#540
b10010 7
18
b1 "
b1 3
b1 ;
b10001 :
b1110 '
0,
06
b10010 .
b1100 &
b1100 1
b1001 %
b1001 0
b1001 )
b1001 2
0#
#545
b101111 7
18
b100 "
b100 3
b0 ;
b101111 :
b10011 '
b1101 &
b1101 1
b10 %
b10 0
b1110 )
b1110 2
b110 +
b110 5
1#
#550
b10000 '
0#
#555
b1011 7
18
b1 "
b1 3
b1 ;
b1010 :
b10001 '
b1100 &
b1100 1
b1010 %
b1010 0
b1010 )
b1010 2
b0 +
b0 5
1#
#560
b1000 7
18
b1 "
b1 3
b11011000 ;
b101111 :
b10010 '
b11 &
b11 1
b10 %
b10 0
b10 )
b10 2
0#
#565
b1101 '
1#
#570
b10011 7
18
b1 "
b1 3
b1 ;
b10010 :
b1110 '
1,
16
b10011 .
b1100 &
b1100 1
b1001 %
b1001 0
b1001 )
b1001 2
0#
#575
b1000 7
18
b100 "
b100 3
b0 ;
b1000 :
b10011 '
b1101 &
b1101 1
b10 %
b10 0
b1110 )
b1110 2
b110 +
b110 5
1#
#580
b10000 '
0#
#585
b1100 7
18
b1 "
b1 3
b1 ;
b1011 :
b10001 '
b1100 &
b1100 1
b1010 %
b1010 0
b1010 )
b1010 2
b0 +
b0 5
1#
#590
b11100001 7
18
b1 "
b1 3
b11011000 ;
b1000 :
b10010 '
b11 &
b11 1
b10 %
b10 0
b10 )
b10 2
0#
#595
b1101 '
1#
#600
b10100 7
18
b1 "
b1 3
b1 ;
b10011 :
b1110 '
0,
06
b10100 .
b1100 &
b1100 1
b1001 %
b1001 0
b1001 )
b1001 2
0#
#605
b0 7
18
b1000 "
b1000 3
b0 ;
b11100001 :
b10011 '
b1101 &
b1101 1
b10 %
b10 0
b1110 )
b1110 2
b110 +
b110 5
1#
#610
b1111 '
0#
#615
b11110 7
18
b1 "
b1 3
b111100 ;
b10010 '
b100 &
b100 1
b10 )
b10 2
b0 +
b0 5
1#
#620
b1101 '
0#
#625
b10101 7
18
b1 "
b1 3
b1 ;
b10100 :
b1110 '
1,
16
b10101 .
b1100 &
b1100 1
b1001 %
b1001 0
b1001 )
b1001 2
1#
#630
b11110 7
18
b100 "
b100 3
b0 ;
b11110 :
b10011 '
b1101 &
b1101 1
b10 %
b10 0
b1110 )
b1110 2
b110 +
b110 5
0#
#635
b10000 '
1#
#640
b1101 7
18
b1 "
b1 3
b1 ;
b1100 :
b10001 '
b1100 &
b1100 1
b1010 %
b1010 0
b1010 )
b1010 2
b0 +
b0 5
0#
#645
b11110111 7
18
b1 "
b1 3
b11011000 ;
b11110 :
b10010 '
b11 &
b11 1
b10 %
b10 0
b10 )
b10 2
1#
#650
b1101 '
0#
#655
b10110 7
18
b1 "
b1 3
b1 ;
b10101 :
b1110 '
0,
06
b10110 .
b1100 &
b1100 1
b1001 %
b1001 0
b1001 )
b1001 2
1#
#660
b0 7
18
b1000 "
b1000 3
b0 ;
b11110111 :
b10011 '
b1101 &
b1101 1
b10 %
b10 0
b1110 )
b1110 2
b110 +
b110 5
0#
#665
b1111 '
1#
#670
b110100 7
18
b1 "
b1 3
b111100 ;
b10010 '
b100 &
b100 1
b10 )
b10 2
b0 +
b0 5
0#
#675
b1101 '
1#
#680
b10111 7
18
b1 "
b1 3
b1 ;
b10110 :
b1110 '
1,
16
b10111 .
b1100 &
b1100 1
b1001 %
b1001 0
b1001 )
b1001 2
0#
#685
b110100 7
18
b100 "
b100 3
b0 ;
b110100 :
b10011 '
b1101 &
b1101 1
b10 %
b10 0
b1110 )
b1110 2
b110 +
b110 5
1#
#690
b10000 '
0#
#695
b1110 7
18
b1 "
b1 3
b1 ;
b1101 :
b10001 '
b1100 &
b1100 1
b1010 %
b1010 0
b1010 )
b1010 2
b0 +
b0 5
1#
#700
b1101 7
18
b1 "
b1 3
b11011000 ;
b110100 :
b10010 '
b11 &
b11 1
b10 %
b10 0
b10 )
b10 2
0#
#705
b1101 '
1#
#710
b11000 7
18
b1 "
b1 3
b1 ;
b10111 :
b1110 '
0,
06
b11000 .
b1100 &
b1100 1
b1001 %
b1001 0
b1001 )
b1001 2
0#
#715
b1101 7
18
b100 "
b100 3
b0 ;
b1101 :
b10011 '
b1101 &
b1101 1
b10 %
b10 0
b1110 )
b1110 2
b110 +
b110 5
1#
#720
b10000 '
0#
#725
b1111 7
18
b1 "
b1 3
b1 ;
b1110 :
b10001 '
b1100 &
b1100 1
b1010 %
b1010 0
b1010 )
b1010 2
b0 +
b0 5
1#
#730
b11100110 7
18
b1 "
b1 3
b11011000 ;
b1101 :
b10010 '
b11 &
b11 1
b10 %
b10 0
b10 )
b10 2
0#
#735
b1101 '
1#
#740
b11001 7
18
b1 "
b1 3
b1 ;
b11000 :
b1110 '
1,
16
b11001 .
b1100 &
b1100 1
b1001 %
b1001 0
b1001 )
b1001 2
0#
#745
b0 7
18
b1000 "
b1000 3
b0 ;
b11100110 :
b10011 '
b1101 &
b1101 1
b10 %
b10 0
b1110 )
b1110 2
b110 +
b110 5
1#
#750
b1111 '
0#
#755
b100011 7
18
b1 "
b1 3
b111100 ;
b10010 '
b100 &
b100 1
b10 )
b10 2
b0 +
b0 5
1#
#760
b1101 '
0#
#765
b11010 7
18
b1 "
b1 3
b1 ;
b11001 :
b1110 '
0,
06
b11010 .
b1100 &
b1100 1
b1001 %
b1001 0
b1001 )
b1001 2
1#
#770
b100011 7
18
b100 "
b100 3
b0 ;
b100011 :
b10011 '
b1101 &
b1101 1
b10 %
b10 0
b1110 )
b1110 2
b110 +
b110 5
0#
#775
b10000 '
1#
#780
b10000 7
18
b1 "
b1 3
b1 ;
b1111 :
b10001 '
b1100 &
b1100 1
b1010 %
b1010 0
b1010 )
b1010 2
b0 +
b0 5
0#
#785
b11111100 7
18
b1 "
b1 3
b11011000 ;
b100011 :
b10010 '
b11 &
b11 1
b10 %
b10 0
b10 )
b10 2
1#
#790
b1101 '
0#
#795
b11011 7
18
b1 "
b1 3
b1 ;
b11010 :
b1110 '
1,
16
b11011 .
b1100 &
b1100 1
b1001 %
b1001 0
b1001 )
b1001 2
1#
#800
b0 7
18
b1000 "
b1000 3
b0 ;
b11111100 :
b10011 '
b1101 &
b1101 1
b10 %
b10 0
b1110 )
b1110 2
b110 +
b110 5
0#
#805
b1111 '
1#
#810
b111001 7
18
b1 "
b1 3
b111100 ;
b10010 '
b100 &
b100 1
b10 )
b10 2
b0 +
b0 5
0#
#815
b1101 '
1#
#820
b11100 7
18
b1 "
b1 3
b1 ;
b11011 :
b1110 '
0,
06
b11100 .
b1100 &
b1100 1
b1001 %
b1001 0
b1001 )
b1001 2
0#
#825
b111001 7
18
b100 "
b100 3
b0 ;
b111001 :
b10011 '
b1101 &
b1101 1
b10 %
b10 0
b1110 )
b1110 2
b110 +
b110 5
1#
#830
b10000 '
0#
#835
b10001 7
18
b1 "
b1 3
b1 ;
b10000 :
b10001 '
b1100 &
b1100 1
b1010 %
b1010 0
b1010 )
b1010 2
b0 +
b0 5
1#
#840
b10010 7
18
b1 "
b1 3
b11011000 ;
b111001 :
b10010 '
b11 &
b11 1
b10 %
b10 0
b10 )
b10 2
0#
#845
b1101 '
1#
#850
b11101 7
18
b1 "
b1 3
b1 ;
b11100 :
b1110 '
1,
16
b11101 .
b1100 &
b1100 1
b1001 %
b1001 0
b1001 )
b1001 2
0#
#855
b10010 7
18
b100 "
b100 3
b0 ;
b10010 :
b10011 '
b1101 &
b1101 1
b10 %
b10 0
b1110 )
b1110 2
b110 +
b110 5
1#
#860
b10000 '
0#
#865
18
b1 "
b1 3
b1 ;
b10001 :
b10001 '
b1100 &
b1100 1
b1010 %
b1010 0
b1010 )
b1010 2
b0 +
b0 5
1#
#870
b11101011 7
18
b1 "
b1 3
b11011000 ;
b10010 :
b10010 '
b11 &
b11 1
b10 %
b10 0
b10 )
b10 2
0#
#875
b1101 '
1#
#880
b11110 7
18
b1 "
b1 3
b1 ;
b11101 :
b1110 '
0,
06
b11110 .
b1100 &
b1100 1
b1001 %
b1001 0
b1001 )
b1001 2
0#
#885
b0 7
18
b1000 "
b1000 3
b0 ;
b11101011 :
b10011 '
b1101 &
b1101 1
b10 %
b10 0
b1110 )
b1110 2
b110 +
b110 5
1#
#890
b1111 '
0#
#895
b101000 7
18
b1 "
b1 3
b111100 ;
b10010 '
b100 &
b100 1
b10 )
b10 2
b0 +
b0 5
1#
#900
b1101 '
0#
#905
b11111 7
18
b1 "
b1 3
b1 ;
b11110 :
b1110 '
1,
16
b11111 .
b1100 &
b1100 1
b1001 %
b1001 0
b1001 )
b1001 2
1#
#910
b101000 7
18
b100 "
b100 3
b0 ;
b101000 :
b10011 '
b1101 &
b1101 1
b10 %
b10 0
b1110 )
b1110 2
b110 +
b110 5
0#
#915
b10000 '
1#
#920
b10011 7
18
b1 "
b1 3
b1 ;
b10010 :
b10001 '
b1100 &
b1100 1
b1010 %
b1010 0
b1010 )
b1010 2
b0 +
b0 5
0#
#925
b1 7
18
b1 "
b1 3
b11011000 ;
b101000 :
b10010 '
b11 &
b11 1
b10 %
b10 0
b10 )
b10 2
1#
#930
b1101 '
0#
#935
b100000 7
18
b1 "
b1 3
b1 ;
b11111 :
b1110 '
0,
06
b100000 .
b1100 &
b1100 1
b1001 %
b1001 0
b1001 )
b1001 2
1#
#940
b1 7
18
b100 "
b100 3
b0 ;
b1 :
b10011 '
b1101 &
b1101 1
b10 %
b10 0
b1110 )
b1110 2
b110 +
b110 5
0#
#945
b10000 '
1#
#950
b10100 7
18
b1 "
b1 3
b1 ;
b10011 :
b10001 '
b1100 &
b1100 1
b1010 %
b1010 0
b1010 )
b1010 2
b0 +
b0 5
0#
#955
b11011010 7
18
b1 "
b1 3
b11011000 ;
b1 :
b10010 '
b11 &
b11 1
b10 %
b10 0
b10 )
b10 2
1#
#960
b1101 '
0#
#965
b100001 7
18
b1 "
b1 3
b1 ;
b100000 :
b1110 '
1,
16
b100001 .
b1100 &
b1100 1
b1001 %
b1001 0
b1001 )
b1001 2
1#
#970
b0 7
18
b1000 "
b1000 3
b0 ;
b11011010 :
b10011 '
b1101 &
b1101 1
b10 %
b10 0
b1110 )
b1110 2
b110 +
b110 5
0#
#975
b1111 '
1#
#980
b10111 7
18
b1 "
b1 3
b111100 ;
b10010 '
b100 &
b100 1
b10 )
b10 2
b0 +
b0 5
0#
#985
b1101 '
1#
#990
b100010 7
18
b1 "
b1 3
b1 ;
b100001 :
b1110 '
0,
06
b100010 .
b1100 &
b1100 1
b1001 %
b1001 0
b1001 )
b1001 2
0#
#995
b10111 7
18
b100 "
b100 3
b0 ;
b10111 :
b10011 '
b1101 &
b1101 1
b10 %
b10 0
b1110 )
b1110 2
b110 +
b110 5
1#
#1000
b10000 '
0#
#1005
b10101 7
18
b1 "
b1 3
b1 ;
b10100 :
b10001 '
b1100 &
b1100 1
b1010 %
b1010 0
b1010 )
b1010 2
b0 +
b0 5
1#
#1010
b11110000 7
18
b1 "
b1 3
b11011000 ;
b10111 :
b10010 '
b11 &
b11 1
b10 %
b10 0
b10 )
b10 2
0#
#1015
b1101 '
1#
#1020
b100011 7
18
b1 "
b1 3
b1 ;
b100010 :
b1110 '
1,
16
b100011 .
b1100 &
b1100 1
b1001 %
b1001 0
b1001 )
b1001 2
0#
#1025
b0 7
18
b1000 "
b1000 3
b0 ;
b11110000 :
b10011 '
b1101 &
b1101 1
b10 %
b10 0
b1110 )
b1110 2
b110 +
b110 5
1#
#1030
b1111 '
0#
#1035
b101101 7
18
b1 "
b1 3
b111100 ;
b10010 '
b100 &
b100 1
b10 )
b10 2
b0 +
b0 5
1#
#1040
b1101 '
0#
#1045
b100100 7
18
b1 "
b1 3
b1 ;
b100011 :
b1110 '
0,
06
b100100 .
b1100 &
b1100 1
b1001 %
b1001 0
b1001 )
b1001 2
1#
#1050
b101101 7
18
b100 "
b100 3
b0 ;
b101101 :
b10011 '
b1101 &
b1101 1
b10 %
b10 0
b1110 )
b1110 2
b110 +
b110 5
0#
#1055
b10000 '
1#
#1060
b10110 7
18
b1 "
b1 3
b1 ;
b10101 :
b10001 '
b1100 &
b1100 1
b1010 %
b1010 0
b1010 )
b1010 2
b0 +
b0 5
0#
#1065
b110 7
18
b1 "
b1 3
b11011000 ;
b101101 :
b10010 '
b11 &
b11 1
b10 %
b10 0
b10 )
b10 2
1#
#1070
b1101 '
0#
#1075
b100101 7
18
b1 "
b1 3
b1 ;
b100100 :
b1110 '
1,
16
b100101 .
b1100 &
b1100 1
b1001 %
b1001 0
b1001 )
b1001 2
1#
#1080
b110 7
18
b100 "
b100 3
b0 ;
b110 :
b10011 '
b1101 &
b1101 1
b10 %
b10 0
b1110 )
b1110 2
b110 +
b110 5
0#
#1085
b10000 '
1#
#1090
b10111 7
18
b1 "
b1 3
b1 ;
b10110 :
b10001 '
b1100 &
b1100 1
b1010 %
b1010 0
b1010 )
b1010 2
b0 +
b0 5
0#
#1095
b11011111 7
18
b1 "
b1 3
b11011000 ;
b110 :
b10010 '
b11 &
b11 1
b10 %
b10 0
b10 )
b10 2
1#
#1100
b1101 '
0#
#1105
b100110 7
18
b1 "
b1 3
b1 ;
b100101 :
b1110 '
0,
06
b100110 .
b1100 &
b1100 1
b1001 %
b1001 0
b1001 )
b1001 2
1#
#1110
b0 7
18
b1000 "
b1000 3
b0 ;
b11011111 :
b10011 '
b1101 &
b1101 1
b10 %
b10 0
b1110 )
b1110 2
b110 +
b110 5
0#
#1115
b1111 '
1#
#1120
b11100 7
18
b1 "
b1 3
b111100 ;
b10010 '
b100 &
b100 1
b10 )
b10 2
b0 +
b0 5
0#
#1125
b1101 '
1#
#1130
b100111 7
18
b1 "
b1 3
b1 ;
b100110 :
b1110 '
1,
16
b100111 .
b1100 &
b1100 1
b1001 %
b1001 0
b1001 )
b1001 2
0#
#1135
b11100 7
18
b100 "
b100 3
b0 ;
b11100 :
b10011 '
b1101 &
b1101 1
b10 %
b10 0
b1110 )
b1110 2
b110 +
b110 5
1#
#1140
b10000 '
0#
#1145
b11000 7
18
b1 "
b1 3
b1 ;
b10111 :
b10001 '
b1100 &
b1100 1
b1010 %
b1010 0
b1010 )
b1010 2
b0 +
b0 5
1#
#1150
b11110101 7
18
b1 "
b1 3
b11011000 ;
b11100 :
b10010 '
b11 &
b11 1
b10 %
b10 0
b10 )
b10 2
0#
#1155
b1101 '
1#
#1160
b101000 7
18
b1 "
b1 3
b1 ;
b100111 :
b1110 '
0,
06
b101000 .
b1100 &
b1100 1
b1001 %
b1001 0
b1001 )
b1001 2
0#
#1165
b0 7
18
b1000 "
b1000 3
b0 ;
b11110101 :
b10011 '
b1101 &
b1101 1
b10 %
b10 0
b1110 )
b1110 2
b110 +
b110 5
1#
#1170
b1111 '
0#
#1175
b110010 7
18
b1 "
b1 3
b111100 ;
b10010 '
b100 &
b100 1
b10 )
b10 2
b0 +
b0 5
1#
#1180
b1101 '
0#
#1185
b101001 7
18
b1 "
b1 3
b1 ;
b101000 :
b1110 '
1,
16
b101001 .
b1100 &
b1100 1
b1001 %
b1001 0
b1001 )
b1001 2
1#
#1190
b110010 7
18
b100 "
b100 3
b0 ;
b110010 :
b10011 '
b1101 &
b1101 1
b10 %
b10 0
b1110 )
b1110 2
b110 +
b110 5
0#
#1195
b10000 '
1#
#1200
b11001 7
18
b1 "
b1 3
b1 ;
b11000 :
b10001 '
b1100 &
b1100 1
b1010 %
b1010 0
b1010 )
b1010 2
b0 +
b0 5
0#
#1205
b1011 7
18
b1 "
b1 3
b11011000 ;
b110010 :
b10010 '
b11 &
b11 1
b10 %
b10 0
b10 )
b10 2
1#
#1210
b1101 '
0#
#1215
b101010 7
18
b1 "
b1 3
b1 ;
b101001 :
b1110 '
0,
06
b101010 .
b1100 &
b1100 1
b1001 %
b1001 0
b1001 )
b1001 2
1#
